<?xml version="1.0" encoding="utf-8"?>
<!-- Generator: Adobe Illustrator 19.2.0, SVG Export Plug-In . SVG Version: 6.00 Build 0)  -->
<svg version="1.1" id="Layer_1" xmlns="http://www.w3.org/2000/svg" xmlns:xlink="http://www.w3.org/1999/xlink" x="0px" y="0px"
	 viewBox="0 0 1053 236" style="enable-background:new 0 0 1053 236;" xml:space="preserve">
<style type="text/css">
	.st0{fill:#010101;}
	.st1{font-family:'Comfortaa-Bold';}
	.st2{font-size:187.7049px;}
	.st3{fill:#F26722;}
	.st4{fill:#F2954E;}
	.st5{fill:#C32B26;}
	.st6{fill:#EE4326;}
	.st7{fill:#D12727;}
	.st8{fill:#F06B45;}
	.st9{fill:#C0534D;}
	.st10{fill:#8A4C4A;}
	.st11{fill:#E9CF31;}
	.st12{fill:#DFBB24;}
	.st13{fill:#EBE614;}
	.st14{fill:#FBF175;}
	.st15{fill:#847E7A;}
	.st16{fill:#A3998F;}
	.st17{fill:url(#SVGID_1_);}
	.st18{fill:url(#SVGID_2_);}
</style>
<text transform="matrix(1 0 0 1 176.0125 165.1046)" class="st0 st1 st2">jatry.com</text>
<polygon class="st3" points="65,38.8 91.6,65.4 91.6,12.2 "/>
<polygon class="st4" points="91.6,12.2 91.6,65.4 118.2,38.8 "/>
<polygon class="st5" points="57.6,92 84.2,118.6 84.2,65.4 "/>
<polygon class="st6" points="84.2,65.4 84.2,118.6 110.8,92 "/>
<polygon class="st7" points="144.8,65.4 118.2,38.8 91.6,65.4 "/>
<polygon class="st8" points="118.2,92 144.8,65.4 91.6,65.4 "/>
<polygon class="st5" points="57.6,145.2 84.2,171.8 84.2,118.6 "/>
<polygon class="st6" points="84.2,118.6 84.2,171.8 110.8,145.2 "/>
<polygon class="st9" points="117.6,146.1 144.2,119.5 91,119.5 "/>
<polygon class="st10" points="144.2,119.5 117.6,92.9 91,119.5 "/>
<polygon class="st4" points="91.6,226.8 118.2,200.2 91.6,173.6 "/>
<polygon class="st3" points="65,200.2 91.6,226.8 91.6,173.6 "/>
<polygon class="st8" points="91.6,173.6 118.2,200.2 144.8,173.6 "/>
<polygon class="st7" points="118.2,147 91.6,173.6 144.8,173.6 "/>
<polygon class="st11" points="50.9,65.4 63.9,78.4 76.9,65.4 50.3,38.8 50.3,66 "/>
<polygon class="st12" points="50.3,38.8 23.7,65.4 37.3,79 50.3,66 "/>
<polygon class="st11" points="50.3,117.9 50.3,119.2 50.9,118.6 "/>
<rect x="54.3" y="82.3" transform="matrix(0.7071 -0.7071 0.7071 0.7071 -46.3167 72.1218)" class="st13" width="19.3" height="19.3"/>
<polygon class="st14" points="37.3,79 24.3,92 37.3,105 50.3,92 50.3,66 "/>
<polygon class="st13" points="50.3,66 50.3,92 63.9,78.4 50.9,65.4 "/>
<rect x="54.3" y="135.5" transform="matrix(0.7071 -0.7071 0.7071 0.7071 -83.9413 87.7067)" class="st13" width="19.3" height="19.3"/>
<polygon class="st11" points="63.9,105.6 50.3,92 50.3,117.9 50.9,118.6 50.3,119.2 50.3,145.2 63.9,131.6 76.9,118.6 "/>
<polygon class="st12" points="37.3,105 23.7,118.6 37.3,132.2 50.3,145.2 50.3,119.2 50.3,117.9 50.3,92 "/>
<polygon class="st12" points="37.3,158.2 23.7,171.8 50.3,198.4 50.3,171.2 "/>
<polygon class="st11" points="63.9,158.8 50.9,171.8 50.3,171.2 50.3,198.4 76.9,171.8 "/>
<polygon class="st14" points="37.3,132.2 24.3,145.2 37.3,158.2 50.3,171.2 50.3,145.2 "/>
<polygon class="st13" points="50.3,171.2 50.9,171.8 63.9,158.8 50.3,145.2 "/>
<polygon class="st15" points="38.4,12.2 65,38.8 65,12.2 "/>
<polygon class="st16" points="65,12.2 65,38.8 91.6,12.2 "/>
<polygon class="st16" points="91.6,226.8 65,200.2 65,226.8 "/>
<polygon class="st15" points="65,200.2 38.4,226.8 65,226.8 "/>
<linearGradient id="SVGID_1_" gradientUnits="userSpaceOnUse" x1="137.231" y1="82.7671" x2="236.5091" y2="172.1722">
	<stop  offset="0" style="stop-color:#5F7C9C"/>
	<stop  offset="0.4122" style="stop-color:#2D3F54"/>
</linearGradient>
<polyline class="st17" points="196.5,118.8 174.6,96.9 163.2,85.5 148.4,70.7 126.5,92.6 152.7,118.8 196.5,118.8 "/>
<linearGradient id="SVGID_2_" gradientUnits="userSpaceOnUse" x1="137.5668" y1="154.8293" x2="235.582" y2="64.0414">
	<stop  offset="0" style="stop-color:#5F7C9C"/>
	<stop  offset="1" style="stop-color:#2D3F54"/>
</linearGradient>
<polyline class="st18" points="196.5,118.8 152.7,118.8 126.5,145 148.4,166.9 163.2,152.1 174.6,140.7 196.5,118.8 "/>
</svg>
